Basic Fundamentals of R – Manipulación y manejo de datos
…
 “Palmerpenguins” incluye un dataset interesante. 
 Para usar Palmerpenguins debe instalarse con las funciones de arriba

Importación de datos

En esta librería existe un set de datos bastante amplio. Vamos a usar penguins

penguins

# A tibble: 344 × 8
   species island    bill_length_mm bill_depth_mm flipper_length_mm body_mass_g
   <fct>   <fct>              <dbl>         <dbl>             <int>       <int>
 1 Adelie  Torgersen           39.1          18.7               181        3750
 2 Adelie  Torgersen           39.5          17.4               186        3800
 3 Adelie  Torgersen           40.3          18                 195        3250
 4 Adelie  Torgersen           NA            NA                  NA          NA
 5 Adelie  Torgersen           36.7          19.3               193        3450
 6 Adelie  Torgersen           39.3          20.6               190        3650
 7 Adelie  Torgersen           38.9          17.8               181        3625
 8 Adelie  Torgersen           39.2          19.6               195        4675
 9 Adelie  Torgersen           34.1          18.1               193        3475
10 Adelie  Torgersen           42            20.2               190        4250
# ℹ 334 more rows
# ℹ 2 more variables: sex <fct>, year <int>
…
Uso de Select()

#Usaremos unos cuantos datos
penguins%>%select(,species,body_mass_g)

# A tibble: 344 × 2
   species body_mass_g
   <fct>         <int>
 1 Adelie         3750
 2 Adelie         3800
 3 Adelie         3250
 4 Adelie           NA
 5 Adelie         3450
 6 Adelie         3650
 7 Adelie         3625
 8 Adelie         4675
 9 Adelie         3475
10 Adelie         4250
# ℹ 334 more rows

#Así puedo seleccionar otros datos y los que necesite.

Es necesario que sepamos que los datos nunca pueden estar en los siguiente formatos para este tipo de comandos. “tbl_df”, “tbl”, “data.frame”

Usando filter ()

Filtrar puede ser una opción interesante cuando sabemos el tipo y la información específica de datos que queremos revisar. Es especialmente útil cuando tenemos que manejar bases de datos amplias. 
 Tomaremos el siguiente ejemplo con penguis 

penguins%>%filter(island == "Torgersen")

# A tibble: 52 × 8
   species island    bill_length_mm bill_depth_mm flipper_length_mm body_mass_g
   <fct>   <fct>              <dbl>         <dbl>             <int>       <int>
 1 Adelie  Torgersen           39.1          18.7               181        3750
 2 Adelie  Torgersen           39.5          17.4               186        3800
 3 Adelie  Torgersen           40.3          18                 195        3250
 4 Adelie  Torgersen           NA            NA                  NA          NA
 5 Adelie  Torgersen           36.7          19.3               193        3450
 6 Adelie  Torgersen           39.3          20.6               190        3650
 7 Adelie  Torgersen           38.9          17.8               181        3625
 8 Adelie  Torgersen           39.2          19.6               195        4675
 9 Adelie  Torgersen           34.1          18.1               193        3475
10 Adelie  Torgersen           42            20.2               190        4250
# ℹ 42 more rows
# ℹ 2 more variables: sex <fct>, year <int>

Uso de mutate()

¿Ha tenido ese problema típico de que debe agregar nuevas columnas o modificar las existentes y ha pensado que quizás hay que subir nuevamente la tabla? 
 Justamente mutate() representa una posible solución a este tipo de problemas que puedes encontrar durante la manipulación de datos. 
 Partamos del siguiente ejemplo:

nueva_variable<-penguins%>%mutate(diferencia_de_medidas = penguins$bill_length_mm / penguins$bill_depth_mm)
nueva_variable%>%select(diferencia_de_medidas, bill_length_mm, bill_depth_mm)

# A tibble: 344 × 3
   diferencia_de_medidas bill_length_mm bill_depth_mm
                   <dbl>          <dbl>         <dbl>
 1                  2.09           39.1          18.7
 2                  2.27           39.5          17.4
 3                  2.24           40.3          18  
 4                 NA              NA            NA  
 5                  1.90           36.7          19.3
 6                  1.91           39.3          20.6
 7                  2.19           38.9          17.8
 8                  2              39.2          19.6
 9                  1.88           34.1          18.1
10                  2.08           42            20.2
# ℹ 334 more rows
…
Ejercicio práctico No. 1

Crear una base de datos o utilizar penguins o penguins_raw para ejemplificar algunos de los comandos vistos. 
 Tienen 10 minutos.

Uso de summarise()

Permite crear un data.frame nuevo.

#Creamos una variable para contener penguins
new_penguins<-penguins%>%summarise(penguins$island)
#Corremos la variable. 
new_penguins

# A tibble: 344 × 1
   `penguins$island`
   <fct>            
 1 Torgersen        
 2 Torgersen        
 3 Torgersen        
 4 Torgersen        
 5 Torgersen        
 6 Torgersen        
 7 Torgersen        
 8 Torgersen        
 9 Torgersen        
10 Torgersen        
# ℹ 334 more rows

Uso de arrange()

La siguiente función permite ordenar creciente o decrecientemente datos de una tabla. 
 Por ejemplo, podemos realizar el siguiente ejemplo: 

descending_penguins<-penguins%>%arrange(desc(penguins$bill_depth_mm))
descending_penguins

# A tibble: 344 × 8
   species   island   bill_length_mm bill_depth_mm flipper_length_mm body_mass_g
   <fct>     <fct>             <dbl>         <dbl>             <int>       <int>
 1 Adelie    Torgers…           46            21.5               194        4200
 2 Adelie    Torgers…           38.6          21.2               191        3800
 3 Adelie    Dream              42.3          21.2               191        4150
 4 Adelie    Torgers…           34.6          21.1               198        4400
 5 Adelie    Dream              39.2          21.1               196        4150
 6 Adelie    Biscoe             41.3          21.1               195        4400
 7 Chinstrap Dream              54.2          20.8               201        4300
 8 Adelie    Torgers…           42.5          20.7               197        4500
 9 Adelie    Biscoe             39.6          20.7               191        3900
10 Chinstrap Dream              52            20.7               210        4800
# ℹ 334 more rows
# ℹ 2 more variables: sex <fct>, year <int>

Podemos aplicar otras variantes de lo visto

#Aplicando un poco de lo visto, podemos tener lo siguiente: 
desc_penguins_select<-descending_penguins%>%select(bill_depth_mm)
desc_penguins_select

# A tibble: 344 × 1
   bill_depth_mm
           <dbl>
 1          21.5
 2          21.2
 3          21.2
 4          21.1
 5          21.1
 6          21.1
 7          20.8
 8          20.7
 9          20.7
10          20.7
# ℹ 334 more rows
…
